Tutorial for mixed Poisson regression with brms
…
## # A tibble: 4 × 6
##   ID         context   dur language gender gestures
##   <chr>      <chr>   <dbl> <chr>    <chr>     <dbl>
## 1 Catalan_7  prof      131 Catalan  F            73
## 2 Korean_4   prof       75 Korean   F            30
## 3 Korean_5   friend    127 Korean   M            33
## 4 Catalan_12 friend    134 Catalan  M            58

Ok, so let me explain the content of the columns to you. First, we have the ID column, which are participant identifiers. Let’s check how many participants there are using the count() function:

dyads %>%
  count(ID)

## # A tibble: 27 × 2
##    ID             n
##    <chr>      <int>
##  1 Catalan_1      2
##  2 Catalan_11     2
##  3 Catalan_12     2
##  4 Catalan_13     2
##  5 Catalan_14     2
##  6 Catalan_16     2
##  7 Catalan_2      2
##  8 Catalan_3      2
##  9 Catalan_4      2
## 10 Catalan_5      2
## # … with 17 more rows
…
